…
``` r
demo_dat <- demo_dat %>% 
  mutate(aps_report_location = str_replace(aps_report_location, "'", "")) %>% 
  mutate(aps_report_location = str_replace(aps_report_location, ", ca| ca|,ca", ""))
```

Examine APS Report Location

``` r
demo_dat %>% 
  count(aps_report_location)
```

    # A tibble: 758 × 2
       aps_report_location                n
       <chr>                          <int>
     1 "#"                                1
     2 "--please select--"                1
     3 "0"                               42
     4 "1"                               11
     5 "109 sterling way roseville"       1
     6 "1167 plumas st"                   1
     7 "136 kaseberg lane roseville"      2
     8 "136 kaseberg lane roseville "     2
     9 "2"                                1
    10 "2 houses from corner tx"          2
    # ℹ 748 more rows
…
Counts of `gender`

``` r
demo_dat %>% 
  count(race_1, gender_identity)
```

    # A tibble: 181 × 3
       race_1                         gender_identity        n
       <chr>                          <chr>              <int>
     1 #                              #                      1
     2 44252                          rent leaseholder       1
     3 44376                          data not collected     1
     4 44515                          <NA>                   1
     5 44519                          <NA>                   1
     6 44600                          <NA>                   1
     7 44769                          <NA>                   2
     8 44774                          <NA>                   1
     9 american indian/alaskan native female                20
    10 american indian/alaskan native male                   8
    # ℹ 171 more rows

- Ask Gina, is the data transposition between `race` variables and
  `gender` being corrected prior to getting to us?

What does the `gender` data look like when `race_1` equals`transgender`
,`female` or `male`

``` r
demo_dat %>% 
  filter(race_1 %in% c("female", "male", "transgender")) %>% 
  count(gender_identity, race_1)
```

    # A tibble: 102 × 3
       gender_identity race_1     n
       <chr>           <chr>  <int>
     1 29 palms        female     6
     2 29 palms        male       2
     3 adelanto        female     6
     4 adelanto        male       1
     5 alta loma       female     4
     6 alta loma       male       2
     7 apple valley    female    11
     8 apple valley    male       2
     9 barstow         female    22
    10 barstow         male      23
    # ℹ 92 more rows
…
# Quick descriptives

``` r
demo_dat %>% 
  select(-id, -aps_report_date, -aps_report_location) %>% 
  var_summarise()
```

    No variables specified, all applicable variables will be used.

    # A tibble: 2,806 × 3
       Variable                                    Label               statistic    
       <chr>                                       <chr>               <chr>        
     1 abuse_by_other_financial                    unknown             134 (1.16%)  
     2 abuse_by_other_financial                    no                  9652 (83.75%)
     3 abuse_by_other_financial                    yes                 1739 (15.09%)
     4 abuse_by_other_non_financial                unknown             109 (0.95%)  
     5 abuse_by_other_non_financial                no                  9007 (78.15%)
     6 abuse_by_other_non_financial                yes                 2409 (20.9%) 
     7 client_homeless_within_the_last_three_years 0                   28 (0.2%)    
     8 client_homeless_within_the_last_three_years data not collected  5115 (35.84%)
     9 client_homeless_within_the_last_three_years unknown             685 (4.8%)   
    10 client_homeless_within_the_last_three_years client doesn't know 3 (0.02%)    
    # ℹ 2,796 more rows
